%YAML 1.1
%TAG !u! tag:unity3d.com,2011:
--- !u!114 &11400000
MonoBehaviour:
  m_ObjectHideFlags: 0
  m_PrefabParentObject: {fileID: 0}
  m_PrefabInternal: {fileID: 0}
  m_GameObject: {fileID: 0}
  m_Enabled: 1
  m_EditorHideFlags: 0
  m_Script: {fileID: 11500000, guid: 226edae3c3353a87e39fc815e9773dfe, type: 3}
  m_Name: "UTNotificationsSettings"
  m_EditorClassIdentifier: 
  m_notificationProfiles:
  - profileName: "default"
    iosSound: 
    androidChannelName: 
    androidChannelDescription: 
    androidIcon: 
    androidLargeIcon: 
    androidIcon5Plus: 
    colorSpecified: 0
    androidColor: {r: 0, g: 0, b: 0, a: 0}
    androidSound: 
    androidHighPriority: 0
  m_pushPayloadTitleFieldName: "title"
  m_pushPayloadTextFieldName: "text"
  m_pushPayloadIdFieldName: "id"
  m_pushPayloadUserDataParentFieldName: 
  m_pushPayloadNotificationProfileFieldName: "notification_profile"
  m_pushPayloadBadgeFieldName: "badge_number"
  m_pushPayloadButtonsParentName: "buttons"
  m_googlePlayServicesLibVersion: "11.8.0+"
  m_androidSupportLibVersion: "27.1.1+"
  m_androidShowNotificationsMode: 0
  m_android4CompatibilityMode: 0
  m_androidRestoreScheduledNotificationsAfterReboot: 1
  m_androidNotificationsGrouping: 0
  m_androidShowLatestNotificationOnly: 0
  m_pushNotificationsEnabledIOS: 0
  m_pushNotificationsEnabledFirebase: 0
  m_pushNotificationsEnabledAmazon: 0
  m_pushNotificationsEnabledWindows: 0
  m_allowUpdatingGooglePlayIfRequired: 1
  m_firebaseSenderID: 
  m_assetVersionSaved: "1.7.3"
  m_windowsDontShowWhenRunning: 1
